new surf_club = CreateDynamicObject(1419,392.805,-1764.269,7.362,356.858,0.000,-179.818);
SetDynamicObjectMaterial(surf_club, 0, 13712, "lahillstr_lawn", "mulhfenc02_LA", 0);
surf_club = CreateDynamicObject(11435,403.876,-1762.162,10.633,0.000,0.000,110.700);
SetDynamicObjectMaterial(surf_club, 0, 3096, "bbpcpx", "blugrad32", 0);
surf_club = CreateDynamicObject(1419,388.755,-1764.245,7.360,-0.641,0.000,-179.818);
SetDynamicObjectMaterial(surf_club, 0, 13712, "lahillstr_lawn", "mulhfenc02_LA", 0);
surf_club = CreateDynamicObject(1419,412.223,-1762.215,7.584,356.858,0.000,-89.918);
SetDynamicObjectMaterial(surf_club, 0, 13712, "lahillstr_lawn", "mulhfenc02_LA", 0);
surf_club = CreateDynamicObject(1419,412.259,-1761.804,7.582,356.858,0.000,-89.918);
SetDynamicObjectMaterial(surf_club, 0, 13861, "lahills_wiresnshit3", "antenna2", 0);
surf_club = CreateDynamicObject(625,410.353,-1763.605,7.650,356.858,0.000,-2.356);
SetDynamicObjectMaterial(surf_club, 0, 3261, "grasshouse", "veg_marijuana", 0);
surf_club = CreateDynamicObject(627,405.709,-1762.934,8.806,0.000,0.000,0.000);
SetDynamicObjectMaterial(surf_club, 0, 3261, "grasshouse", "veg_marijuana", 0);
surf_club = CreateDynamicObject(1281,402.076,-1762.958,7.602,0.000,0.000,-0.600);
SetDynamicObjectMaterial(surf_club, 0, 981, "helixbarrier", "colourboxes", 0);
surf_club = CreateDynamicObject(1281,398.126,-1762.838,7.622,0.000,0.000,0.119);
SetDynamicObjectMaterial(surf_club, 0, 1851, "hi_cutdice", "dice3", 0);
surf_club = CreateDynamicObject(1281,384.735,-1762.836,7.622,0.000,0.000,0.119);
SetDynamicObjectMaterial(surf_club, 0, 981, "helixbarrier", "colourboxes", 0);
surf_club = CreateDynamicObject(1443,391.570,-1761.176,7.660,0.000,0.000,-352.859);
SetDynamicObjectMaterial(surf_club, 0, 2423, "cj_ff_counters", "CJ_TILES_3", 0);
surf_club = CreateDynamicObject(627,395.663,-1762.407,8.806,0.000,0.000,0.000);
SetDynamicObjectMaterial(surf_club, 0, 3261, "grasshouse", "veg_marijuana", 0);
surf_club = CreateDynamicObject(627,401.049,-1760.243,8.806,0.000,0.000,0.000);
SetDynamicObjectMaterial(surf_club, 0, 3261, "grasshouse", "veg_marijuana", 0);
surf_club = CreateDynamicObject(627,383.506,-1757.630,9.136,0.000,0.000,0.000);
SetDynamicObjectMaterial(surf_club, 0, 16060, "des_trees", "Newtreed256", 0);
/////////////////////////////////////////////////////////////////////////////////////////////////////////////////
/////////////////////////////////////////////////////////////////////////////////////////////////////////////////
/////////////////////////////////////////////////////////////////////////////////////////////////////////////////
surf_club = CreateDynamicObject(19454,414.152,-1753.405,7.112,0.000,-90.000,59.000);
surf_club = CreateDynamicObject(11435,429.377,-1764.143,10.633,0.000,0.000,172.140);
surf_club = CreateDynamicObject(625,412.431,-1761.813,7.882,356.858,0.000,-2.356);
surf_club = CreateDynamicObject(1439,413.323,-1757.444,7.248,356.859,-0.087,-0.060);
surf_club = CreateDynamicObject(1439,415.226,-1757.429,7.248,356.859,-0.087,-0.060);
surf_club = CreateDynamicObject(625,387.750,-1758.153,7.882,356.858,0.000,-2.356);
surf_club = CreateDynamicObject(1371,388.037,-1756.911,8.005,0.000,0.000,0.000);
surf_club = CreateDynamicObject(1371,394.452,-1757.184,8.005,0.000,0.000,0.000);
surf_club = CreateDynamicObject(1371,399.957,-1756.666,8.005,0.000,0.000,-31.379);
surf_club = CreateDynamicObject(1415,381.051,-1762.943,6.885,356.858,-0.087,-266.365);
surf_club = CreateDynamicObject(627,387.808,-1763.244,8.636,0.000,0.000,0.000);
